{
  "images" : [
    {
      "idiom" : "universal",
      "filename" : "if_FEZ-02_196914-2.png",
      "scale" : "1x"
    },
    {
      "idiom" : "universal",
      "filename" : "if_FEZ-02_196914.png",
      "scale" : "2x"
    },
    {
      "idiom" : "universal",
      "filename" : "if_FEZ-02_196914-3.png",
      "scale" : "3x"
    }
  ],
  "info" : {
    "version" : 1,
    "author" : "xcode"
  }
}